{
  "_name_or_path": "Helsinki-NLP/opus-mt-en-es",
  "activation_dropout": 0.0,
  "activation_function": "swish",
  "add_bias_logits": false,
  "add_final_layer_norm": false,
  "architectures": [
    "MarianMTModel"
  ],
  "attention_dropout": 0.0,
  "bad_words_ids": [
    [
      65000
    ]
  ],
  "bos_token_id": 0,
  "classif_dropout": 0.0,
  "classifier_dropout": 0.0,
  "d_model": 512,
  "decoder_attention_heads": 8,
  "decoder_ffn_dim": 2048,
  "decoder_layerdrop": 0.0,
  "decoder_layers": 3,
  "decoder_start_token_id": 65000,
  "decoder_vocab_size": 65001,
  "dropout": 0.1,
  "encoder_attention_heads": 8,
  "encoder_ffn_dim": 2048,
  "encoder_layerdrop": 0.0,
  "encoder_layers": 6,
  "eos_token_id": 0,
  "extra_pos_embeddings": 65001,
  "force_bos_token_to_be_generated": false,
  "forced_eos_token_id": 0,
  "gradient_checkpointing": false,
  "id2label": {
    "0": "LABEL_0",
    "1": "LABEL_1",
    "2": "LABEL_2"
  },
  "init_metadata": {
    "copied_decoder_layers": [
      0,
      2,
      5
    ],
    "copied_encoder_layers": [
      0,
      1,
      2,
      3,
      4,
      5
    ],
    "teacher_type": "marian"
  },
  "init_std": 0.02,
  "is_encoder_decoder": true,
  "label2id": {
    "LABEL_0": 0,
    "LABEL_1": 1,
    "LABEL_2": 2
  },
  "max_length": 512,
  "max_position_embeddings": 512,
  "model_type": "marian",
  "normalize_before": false,
  "normalize_embedding": false,
  "num_beams": 4,
  "num_hidden_layers": 6,
  "pad_token_id": 65000,
  "scale_embedding": true,
  "share_encoder_decoder_embeddings": true,
  "static_position_embeddings": true,
  "torch_dtype": "float32",
  "transformers_version": "4.24.0",
  "use_cache": true,
  "vocab_size": 65001
}
