{
  "eos_token": "</s>",
  "model_max_length": 512,
  "name_or_path": "Helsinki-NLP/opus-mt-en-es",
  "pad_token": "<pad>",
  "return_tensors": "pt",
  "separate_vocabs": false,
  "source_lang": "eng",
  "sp_model_kwargs": {},
  "special_tokens_map_file": null,
  "target_lang": "spa",
  "tokenizer_class": "MarianTokenizer",
  "unk_token": "<unk>"
}
